Pairwise QC pt. 2 (empirical)
…
set.seed(4)
res <- res |>
  mutate(n_nonzero_cntrl_bin = bin(n_nonzero_cntrl, 5L))
min_bin_size <- res$n_nonzero_cntrl_bin |> table() |> min()
res <- res |>
  group_by(n_nonzero_cntrl_bin) |>
  sample_n(min_bin_size)
res |>
  summarize(n_false_rejections = sum(significant))

## # A tibble: 25 × 2
##    n_nonzero_cntrl_bin n_false_rejections
##    <fct>                            <int>
##  1 [1, 35]                              0
##  2 [36, 91]                             0
##  3 [92, 177]                            0
##  4 [178, 344]                           0
##  5 [345, 9007]                          6
##  6 [1, 394]                            22
##  7 [395, 659]                           1
##  8 [660, 982]                           1
##  9 [983, 1473]                          8
## 10 [1474, 13079]                       44
## # ℹ 15 more rows
